{
  "data": {
    "totalRecords": 376,
    "totalPages": 38,
    "size": 10,
    "currentPage": 0,
    "numberOfRecords": 10,
    "data": [
      {
        "employeeCode": "#e9d68e",
        "employeeName": "Hobart Cashley",
        "bussinessName": "Zoonder",
        "designation": "Engineer",
        "approvalStatus": true,
        "location": "Apt 1170",
        "employeeStatus": true
      },
      {
        "employeeCode": "#3decc5",
        "employeeName": "Hobart Iscowitz",
        "bussinessName": "Zoomzone",
        "designation": "Estimator",
        "approvalStatus": true,
        "location": "10th Floor",
        "employeeStatus": false
      },
      {
        "employeeCode": "#c66885",
        "employeeName": "Bryant Eyles",
        "bussinessName": "Rhyzio",
        "designation": "Construction Foreman",
        "approvalStatus": false,
        "location": "Apt 843",
        "employeeStatus": false
      },
      {
        "employeeCode": "#12f1dc",
        "employeeName": "Lucinda Hugonet",
        "bussinessName": "Zoozzy",
        "designation": "Estimator",
        "approvalStatus": false,
        "location": "PO Box 62683",
        "employeeStatus": true
      },
      {
        "employeeCode": "#64c014",
        "employeeName": "Ammamaria Nattriss",
        "bussinessName": "Avavee",
        "designation": "Construction Manager",
        "approvalStatus": true,
        "location": "Suite 26",
        "employeeStatus": true
      },
      {
        "employeeCode": "#78d8c4",
        "employeeName": "Von Oiller",
        "bussinessName": "Thoughtblab",
        "designation": "Surveyor",
        "approvalStatus": false,
        "location": "Apt 722",
        "employeeStatus": false
      },
      {
        "employeeCode": "#1b5fe3",
        "employeeName": "Dexter Gentle",
        "bussinessName": "Tazzy",
        "designation": "Subcontractor",
        "approvalStatus": true,
        "location": "Suite 45",
        "employeeStatus": true
      },
      {
        "employeeCode": "#96b164",
        "employeeName": "Anneliese Riggey",
        "bussinessName": "Divanoodle",
        "designation": "Construction Manager",
        "approvalStatus": false,
        "location": "Apt 1470",
        "employeeStatus": false
      },
      {
        "employeeCode": "#a258f7",
        "employeeName": "Mick Haslam",
        "bussinessName": "Kazu",
        "designation": "Estimator",
        "approvalStatus": false,
        "location": "Apt 1456",
        "employeeStatus": false
      },
      {
        "employeeCode": "#c0ca28",
        "employeeName": "Sharity Borrel",
        "bussinessName": "Kwimbee",
        "designation": "Engineer",
        "approvalStatus": true,
        "location": "1st Floor",
        "employeeStatus": true
      },
      {
        "employeeCode": "#86c935",
        "employeeName": "Leupold Townsley",
        "bussinessName": "Eidel",
        "designation": "Construction Manager",
        "approvalStatus": true,
        "location": "Suite 64",
        "employeeStatus": true
      },
      {
        "employeeCode": "#a9ad29",
        "employeeName": "Tate O'Fogarty",
        "bussinessName": "Flashspan",
        "designation": "Construction Worker",
        "approvalStatus": true,
        "location": "Suite 23",
        "employeeStatus": false
      },
      {
        "employeeCode": "#c6a730",
        "employeeName": "Cornie Ilson",
        "bussinessName": "Voomm",
        "designation": "Construction Expeditor",
        "approvalStatus": false,
        "location": "Suite 60",
        "employeeStatus": true
      },
      {
        "employeeCode": "#1d22e2",
        "employeeName": "Traci Dimmick",
        "bussinessName": "Twitterworks",
        "designation": "Construction Manager",
        "approvalStatus": true,
        "location": "1st Floor",
        "employeeStatus": false
      },
      {
        "employeeCode": "#c26a88",
        "employeeName": "Andre Gohn",
        "bussinessName": "Realcube",
        "designation": "Construction Manager",
        "approvalStatus": true,
        "location": "Room 240",
        "employeeStatus": false
      },
      {
        "employeeCode": "#044271",
        "employeeName": "Ambrosius Betteson",
        "bussinessName": "Skipstorm",
        "designation": "Surveyor",
        "approvalStatus": true,
        "location": "Suite 11",
        "employeeStatus": true
      },
      {
        "employeeCode": "#638066",
        "employeeName": "Putnem Jakuszewski",
        "bussinessName": "Yakitri",
        "designation": "Subcontractor",
        "approvalStatus": false,
        "location": "Suite 25",
        "employeeStatus": true
      },
      {
        "employeeCode": "#05ec53",
        "employeeName": "Chrisse Shillaber",
        "bussinessName": "Leenti",
        "designation": "Construction Foreman",
        "approvalStatus": false,
        "location": "16th Floor",
        "employeeStatus": true
      },
      {
        "employeeCode": "#7399bb",
        "employeeName": "Paule Crecy",
        "bussinessName": "Kanoodle",
        "designation": "Project Manager",
        "approvalStatus": true,
        "location": "PO Box 67737",
        "employeeStatus": true
      },
      {
        "employeeCode": "#81c054",
        "employeeName": "Codie Guillem",
        "bussinessName": "Jayo",
        "designation": "Architect",
        "approvalStatus": true,
        "location": "Room 739",
        "employeeStatus": false
      },
      {
        "employeeCode": "#a5464a",
        "employeeName": "Alta Lyne",
        "bussinessName": "Thoughtworks",
        "designation": "Subcontractor",
        "approvalStatus": false,
        "location": "20th Floor",
        "employeeStatus": true
      },
      {
        "employeeCode": "#a41fd8",
        "employeeName": "Pegeen Branford",
        "bussinessName": "Yakijo",
        "designation": "Project Manager",
        "approvalStatus": false,
        "location": "PO Box 66184",
        "employeeStatus": false
      },
      {
        "employeeCode": "#31ef34",
        "employeeName": "Ettore Woolpert",
        "bussinessName": "Myworks",
        "designation": "Surveyor",
        "approvalStatus": true,
        "location": "PO Box 98854",
        "employeeStatus": false
      },
      {
        "employeeCode": "#8f174f",
        "employeeName": "Marley Prestwich",
        "bussinessName": "Roombo",
        "designation": "Construction Expeditor",
        "approvalStatus": false,
        "location": "PO Box 88857",
        "employeeStatus": false
      },
      {
        "employeeCode": "#813cfb",
        "employeeName": "Durand Grigson",
        "bussinessName": "Fatz",
        "designation": "Estimator",
        "approvalStatus": false,
        "location": "Apt 94",
        "employeeStatus": true
      },
      {
        "employeeCode": "#1c0f9e",
        "employeeName": "Patrice Hammerich",
        "bussinessName": "Izio",
        "designation": "Construction Expeditor",
        "approvalStatus": false,
        "location": "10th Floor",
        "employeeStatus": true
      },
      {
        "employeeCode": "#c2d43a",
        "employeeName": "Marlo Sarchwell",
        "bussinessName": "Zoonder",
        "designation": "Project Manager",
        "approvalStatus": false,
        "location": "Suite 81",
        "employeeStatus": true
      },
      {
        "employeeCode": "#146be6",
        "employeeName": "Melania Strafen",
        "bussinessName": "Ntags",
        "designation": "Construction Manager",
        "approvalStatus": true,
        "location": "3rd Floor",
        "employeeStatus": false
      },
      {
        "employeeCode": "#679e77",
        "employeeName": "Chaunce Berthomieu",
        "bussinessName": "Gevee",
        "designation": "Subcontractor",
        "approvalStatus": true,
        "location": "Room 698",
        "employeeStatus": false
      },
      {
        "employeeCode": "#48fbf8",
        "employeeName": "Harrie Watton",
        "bussinessName": "Tanoodle",
        "designation": "Construction Worker",
        "approvalStatus": false,
        "location": "PO Box 47214",
        "employeeStatus": true
      },
      {
        "employeeCode": "#a21878",
        "employeeName": "Ulrick Boydell",
        "bussinessName": "Yabox",
        "designation": "Construction Foreman",
        "approvalStatus": true,
        "location": "PO Box 66849",
        "employeeStatus": false
      },
      {
        "employeeCode": "#9d4048",
        "employeeName": "Conni Limprecht",
        "bussinessName": "Youspan",
        "designation": "Electrician",
        "approvalStatus": true,
        "location": "Room 752",
        "employeeStatus": false
      },
      {
        "employeeCode": "#fa18c0",
        "employeeName": "Weber Cossor",
        "bussinessName": "Dazzlesphere",
        "designation": "Subcontractor",
        "approvalStatus": false,
        "location": "Apt 310",
        "employeeStatus": true
      },
      {
        "employeeCode": "#f62614",
        "employeeName": "Aileen Tartt",
        "bussinessName": "Fatz",
        "designation": "Electrician",
        "approvalStatus": false,
        "location": "Suite 40",
        "employeeStatus": true
      },
      {
        "employeeCode": "#27a562",
        "employeeName": "Bernardo Seneschal",
        "bussinessName": "Yabox",
        "designation": "Construction Expeditor",
        "approvalStatus": true,
        "location": "PO Box 9614",
        "employeeStatus": false
      },
      {
        "employeeCode": "#cffe3a",
        "employeeName": "Vasilis Petken",
        "bussinessName": "Tazz",
        "designation": "Surveyor",
        "approvalStatus": true,
        "location": "Apt 1946",
        "employeeStatus": true
      },
      {
        "employeeCode": "#981d1f",
        "employeeName": "Hermine Ummfrey",
        "bussinessName": "Riffwire",
        "designation": "Architect",
        "approvalStatus": false,
        "location": "PO Box 48060",
        "employeeStatus": false
      },
      {
        "employeeCode": "#567a1b",
        "employeeName": "Merrili Blenkinship",
        "bussinessName": "Roodel",
        "designation": "Architect",
        "approvalStatus": true,
        "location": "Room 1814",
        "employeeStatus": true
      },
      {
        "employeeCode": "#ee3f17",
        "employeeName": "Berni Reboul",
        "bussinessName": "Linklinks",
        "designation": "Electrician",
        "approvalStatus": false,
        "location": "Room 654",
        "employeeStatus": true
      },
      {
        "employeeCode": "#366617",
        "employeeName": "Erny Jolliffe",
        "bussinessName": "Skilith",
        "designation": "Construction Manager",
        "approvalStatus": true,
        "location": "PO Box 54656",
        "employeeStatus": false
      },
      {
        "employeeCode": "#abdeb2",
        "employeeName": "Milissent Donativo",
        "bussinessName": "Blognation",
        "designation": "Electrician",
        "approvalStatus": true,
        "location": "13th Floor",
        "employeeStatus": false
      },
      {
        "employeeCode": "#f970da",
        "employeeName": "Hallsy Beauchop",
        "bussinessName": "Shuffletag",
        "designation": "Architect",
        "approvalStatus": false,
        "location": "PO Box 94218",
        "employeeStatus": false
      },
      {
        "employeeCode": "#0692bf",
        "employeeName": "Welbie Eykel",
        "bussinessName": "Twinte",
        "designation": "Construction Expeditor",
        "approvalStatus": false,
        "location": "Suite 88",
        "employeeStatus": false
      },
      {
        "employeeCode": "#e024f2",
        "employeeName": "Blakeley Crosen",
        "bussinessName": "Gabspot",
        "designation": "Electrician",
        "approvalStatus": true,
        "location": "2nd Floor",
        "employeeStatus": true
      },
      {
        "employeeCode": "#c60307",
        "employeeName": "Lindie Ferri",
        "bussinessName": "Tagtune",
        "designation": "Construction Foreman",
        "approvalStatus": true,
        "location": "15th Floor",
        "employeeStatus": false
      },
      {
        "employeeCode": "#e09a90",
        "employeeName": "Goldina Notley",
        "bussinessName": "Leenti",
        "designation": "Construction Worker",
        "approvalStatus": true,
        "location": "Suite 4",
        "employeeStatus": false
      },
      {
        "employeeCode": "#cdb732",
        "employeeName": "Raina Demicoli",
        "bussinessName": "Divavu",
        "designation": "Engineer",
        "approvalStatus": false,
        "location": "PO Box 83670",
        "employeeStatus": false
      },
      {
        "employeeCode": "#0f5dd7",
        "employeeName": "Gayle Bragger",
        "bussinessName": "Topicware",
        "designation": "Supervisor",
        "approvalStatus": true,
        "location": "Apt 1356",
        "employeeStatus": true
      },
      {
        "employeeCode": "#e20163",
        "employeeName": "Alvie Filkov",
        "bussinessName": "Riffpath",
        "designation": "Estimator",
        "approvalStatus": true,
        "location": "Suite 29",
        "employeeStatus": false
      },
      {
        "employeeCode": "#7cf330",
        "employeeName": "Florinda Champ",
        "bussinessName": "Kayveo",
        "designation": "Project Manager",
        "approvalStatus": false,
        "location": "Room 1479",
        "employeeStatus": true
      },
      {
        "employeeCode": "#ed36ca",
        "employeeName": "Nerissa Feilden",
        "bussinessName": "Yoveo",
        "designation": "Surveyor",
        "approvalStatus": false,
        "location": "17th Floor",
        "employeeStatus": true
      },
      {
        "employeeCode": "#0d02ce",
        "employeeName": "Georgianna Smee",
        "bussinessName": "Jabbercube",
        "designation": "Construction Worker",
        "approvalStatus": true,
        "location": "PO Box 63641",
        "employeeStatus": false
      },
      {
        "employeeCode": "#1f4e27",
        "employeeName": "Michael Szymczyk",
        "bussinessName": "Fivechat",
        "designation": "Architect",
        "approvalStatus": false,
        "location": "Room 868",
        "employeeStatus": false
      },
      {
        "employeeCode": "#dadbcd",
        "employeeName": "Tobit Northleigh",
        "bussinessName": "Jaxbean",
        "designation": "Engineer",
        "approvalStatus": true,
        "location": "Apt 1964",
        "employeeStatus": false
      },
      {
        "employeeCode": "#1cb57f",
        "employeeName": "Riva Brunel",
        "bussinessName": "Vimbo",
        "designation": "Supervisor",
        "approvalStatus": true,
        "location": "Room 1353",
        "employeeStatus": false
      },
      {
        "employeeCode": "#e7860b",
        "employeeName": "Cullan Blinde",
        "bussinessName": "Photojam",
        "designation": "Electrician",
        "approvalStatus": true,
        "location": "Suite 2",
        "employeeStatus": false
      },
      {
        "employeeCode": "#4d0e73",
        "employeeName": "Lynn Rickardes",
        "bussinessName": "Yambee",
        "designation": "Estimator",
        "approvalStatus": false,
        "location": "5th Floor",
        "employeeStatus": false
      },
      {
        "employeeCode": "#abc9e3",
        "employeeName": "Herman Storie",
        "bussinessName": "Edgeblab",
        "designation": "Surveyor",
        "approvalStatus": true,
        "location": "PO Box 82636",
        "employeeStatus": false
      },
      {
        "employeeCode": "#a69075",
        "employeeName": "Sharlene McKune",
        "bussinessName": "Pixonyx",
        "designation": "Electrician",
        "approvalStatus": true,
        "location": "Suite 63",
        "employeeStatus": true
      },
      {
        "employeeCode": "#cdbe20",
        "employeeName": "Charmane Guys",
        "bussinessName": "Meezzy",
        "designation": "Surveyor",
        "approvalStatus": true,
        "location": "PO Box 75306",
        "employeeStatus": true
      },
      {
        "employeeCode": "#1b1e98",
        "employeeName": "Beckie Curneen",
        "bussinessName": "Edgeblab",
        "designation": "Estimator",
        "approvalStatus": false,
        "location": "Suite 65",
        "employeeStatus": true
      },
      {
        "employeeCode": "#c28258",
        "employeeName": "Celeste Cowterd",
        "bussinessName": "Blognation",
        "designation": "Estimator",
        "approvalStatus": true,
        "location": "Suite 45",
        "employeeStatus": true
      },
      {
        "employeeCode": "#8cd1dd",
        "employeeName": "Roland Rolph",
        "bussinessName": "Browsezoom",
        "designation": "Construction Foreman",
        "approvalStatus": true,
        "location": "PO Box 25825",
        "employeeStatus": false
      },
      {
        "employeeCode": "#f83eb6",
        "employeeName": "Sebastiano Venart",
        "bussinessName": "Twitterworks",
        "designation": "Electrician",
        "approvalStatus": true,
        "location": "PO Box 45344",
        "employeeStatus": false
      },
      {
        "employeeCode": "#64d459",
        "employeeName": "Dita Kelberer",
        "bussinessName": "Yakijo",
        "designation": "Subcontractor",
        "approvalStatus": true,
        "location": "PO Box 80064",
        "employeeStatus": false
      },
      {
        "employeeCode": "#0361c8",
        "employeeName": "Susan Pauls",
        "bussinessName": "Trupe",
        "designation": "Subcontractor",
        "approvalStatus": false,
        "location": "Suite 14",
        "employeeStatus": false
      },
      {
        "employeeCode": "#7c865b",
        "employeeName": "Hodge Aris",
        "bussinessName": "Skyble",
        "designation": "Subcontractor",
        "approvalStatus": true,
        "location": "1st Floor",
        "employeeStatus": true
      },
      {
        "employeeCode": "#dfcc5e",
        "employeeName": "Yorke Crookston",
        "bussinessName": "Zoombox",
        "designation": "Project Manager",
        "approvalStatus": false,
        "location": "PO Box 19477",
        "employeeStatus": true
      },
      {
        "employeeCode": "#e3dfdc",
        "employeeName": "Caty Joincey",
        "bussinessName": "Devbug",
        "designation": "Supervisor",
        "approvalStatus": false,
        "location": "Suite 56",
        "employeeStatus": false
      },
      {
        "employeeCode": "#1f7fde",
        "employeeName": "Alfy Cossam",
        "bussinessName": "Browsezoom",
        "designation": "Architect",
        "approvalStatus": false,
        "location": "19th Floor",
        "employeeStatus": false
      },
      {
        "employeeCode": "#ee5525",
        "employeeName": "Aimee Etuck",
        "bussinessName": "Meetz",
        "designation": "Electrician",
        "approvalStatus": true,
        "location": "Suite 59",
        "employeeStatus": false
      },
      {
        "employeeCode": "#8718a7",
        "employeeName": "Blancha Skilbeck",
        "bussinessName": "Skibox",
        "designation": "Engineer",
        "approvalStatus": false,
        "location": "Apt 878",
        "employeeStatus": false
      },
      {
        "employeeCode": "#721165",
        "employeeName": "Enrika Wilkinson",
        "bussinessName": "Twimbo",
        "designation": "Electrician",
        "approvalStatus": false,
        "location": "Suite 43",
        "employeeStatus": true
      },
      {
        "employeeCode": "#311ebc",
        "employeeName": "Ethelred Arnowitz",
        "bussinessName": "Twitterworks",
        "designation": "Project Manager",
        "approvalStatus": false,
        "location": "PO Box 89443",
        "employeeStatus": false
      },
      {
        "employeeCode": "#086503",
        "employeeName": "Edgard Styant",
        "bussinessName": "Devshare",
        "designation": "Construction Foreman",
        "approvalStatus": false,
        "location": "Suite 58",
        "employeeStatus": true
      },
      {
        "employeeCode": "#011df0",
        "employeeName": "Cherye Columbine",
        "bussinessName": "Brainlounge",
        "designation": "Surveyor",
        "approvalStatus": true,
        "location": "Apt 1267",
        "employeeStatus": true
      },
      {
        "employeeCode": "#030bdf",
        "employeeName": "Mureil Gremane",
        "bussinessName": "Youopia",
        "designation": "Construction Foreman",
        "approvalStatus": true,
        "location": "Room 156",
        "employeeStatus": false
      },
      {
        "employeeCode": "#7c3e55",
        "employeeName": "Nealy Macartney",
        "bussinessName": "Mynte",
        "designation": "Engineer",
        "approvalStatus": true,
        "location": "PO Box 90586",
        "employeeStatus": true
      },
      {
        "employeeCode": "#69cdab",
        "employeeName": "Elsy Leicester",
        "bussinessName": "Reallinks",
        "designation": "Engineer",
        "approvalStatus": false,
        "location": "Suite 33",
        "employeeStatus": true
      },
      {
        "employeeCode": "#e80554",
        "employeeName": "Kile Chopy",
        "bussinessName": "Fivebridge",
        "designation": "Construction Worker",
        "approvalStatus": false,
        "location": "PO Box 35902",
        "employeeStatus": true
      },
      {
        "employeeCode": "#860045",
        "employeeName": "Ulysses Binestead",
        "bussinessName": "DabZ",
        "designation": "Construction Expeditor",
        "approvalStatus": true,
        "location": "Room 1781",
        "employeeStatus": false
      },
      {
        "employeeCode": "#755bb2",
        "employeeName": "Beauregard Bleckly",
        "bussinessName": "Kazio",
        "designation": "Construction Manager",
        "approvalStatus": true,
        "location": "PO Box 76134",
        "employeeStatus": false
      },
      {
        "employeeCode": "#0a60e3",
        "employeeName": "Wilmer Kenderdine",
        "bussinessName": "Trudoo",
        "designation": "Subcontractor",
        "approvalStatus": false,
        "location": "PO Box 81177",
        "employeeStatus": true
      },
      {
        "employeeCode": "#95c592",
        "employeeName": "Tremain Heinssen",
        "bussinessName": "Jayo",
        "designation": "Project Manager",
        "approvalStatus": false,
        "location": "Room 785",
        "employeeStatus": true
      },
      {
        "employeeCode": "#0d1027",
        "employeeName": "Farrah O'Currine",
        "bussinessName": "Thoughtblab",
        "designation": "Supervisor",
        "approvalStatus": true,
        "location": "Apt 1585",
        "employeeStatus": false
      },
      {
        "employeeCode": "#a38529",
        "employeeName": "Ermengarde Sabey",
        "bussinessName": "Jabberbean",
        "designation": "Estimator",
        "approvalStatus": true,
        "location": "Suite 34",
        "employeeStatus": true
      },
      {
        "employeeCode": "#f1ae55",
        "employeeName": "Leonhard Jowers",
        "bussinessName": "Babbleset",
        "designation": "Estimator",
        "approvalStatus": false,
        "location": "PO Box 24776",
        "employeeStatus": false
      },
      {
        "employeeCode": "#1f35ce",
        "employeeName": "Shara Hurich",
        "bussinessName": "Browseblab",
        "designation": "Architect",
        "approvalStatus": false,
        "location": "Room 809",
        "employeeStatus": false
      },
      {
        "employeeCode": "#14d145",
        "employeeName": "Brien Hollyer",
        "bussinessName": "Topiczoom",
        "designation": "Construction Foreman",
        "approvalStatus": true,
        "location": "Room 1826",
        "employeeStatus": true
      },
      {
        "employeeCode": "#a5e59b",
        "employeeName": "Homere Hatliffe",
        "bussinessName": "Kare",
        "designation": "Construction Manager",
        "approvalStatus": true,
        "location": "Apt 705",
        "employeeStatus": true
      },
      {
        "employeeCode": "#17b9c5",
        "employeeName": "Rubia Rallings",
        "bussinessName": "Voolia",
        "designation": "Engineer",
        "approvalStatus": true,
        "location": "PO Box 66330",
        "employeeStatus": true
      },
      {
        "employeeCode": "#d84c60",
        "employeeName": "Lorry Gatteridge",
        "bussinessName": "Demimbu",
        "designation": "Engineer",
        "approvalStatus": true,
        "location": "Suite 23",
        "employeeStatus": true
      },
      {
        "employeeCode": "#e408e8",
        "employeeName": "Marcela McLeoid",
        "bussinessName": "Eadel",
        "designation": "Engineer",
        "approvalStatus": true,
        "location": "Apt 1902",
        "employeeStatus": true
      },
      {
        "employeeCode": "#bf465a",
        "employeeName": "Jo Comar",
        "bussinessName": "Yozio",
        "designation": "Construction Foreman",
        "approvalStatus": false,
        "location": "Apt 1889",
        "employeeStatus": false
      },
      {
        "employeeCode": "#ef03de",
        "employeeName": "Ike Bansal",
        "bussinessName": "Babblestorm",
        "designation": "Engineer",
        "approvalStatus": false,
        "location": "Room 645",
        "employeeStatus": false
      },
      {
        "employeeCode": "#b48632",
        "employeeName": "Oralia Scadding",
        "bussinessName": "Bluezoom",
        "designation": "Electrician",
        "approvalStatus": false,
        "location": "17th Floor",
        "employeeStatus": true
      },
      {
        "employeeCode": "#3ff172",
        "employeeName": "Gabriello Williamson",
        "bussinessName": "Fivespan",
        "designation": "Engineer",
        "approvalStatus": false,
        "location": "Room 293",
        "employeeStatus": false
      },
      {
        "employeeCode": "#106cb7",
        "employeeName": "Sherwynd Callum",
        "bussinessName": "Tagtune",
        "designation": "Construction Expeditor",
        "approvalStatus": true,
        "location": "Suite 26",
        "employeeStatus": true
      },
      {
        "employeeCode": "#5a013c",
        "employeeName": "Karlan Persitt",
        "bussinessName": "Rhynyx",
        "designation": "Construction Expeditor",
        "approvalStatus": false,
        "location": "Apt 393",
        "employeeStatus": true
      },
      {
        "employeeCode": "#419825",
        "employeeName": "Marina Cowthard",
        "bussinessName": "Browsecat",
        "designation": "Electrician",
        "approvalStatus": true,
        "location": "Suite 31",
        "employeeStatus": false
      }
    ]
  }
}
